<svg width="227" height="100" viewBox="0 0 227 100" fill="none" xmlns="http://www.w3.org/2000/svg">
<path d="M104.565 11.16C108.168 11.16 109.97 12.3507 109.97 14.732C109.97 17.0507 108.168 18.21 104.565 18.21H101.745V39.595C101.745 43.1983 100.476 45 97.938 45C95.4 45 94.131 43.1983 94.131 39.595V18.21H91.311C87.7077 18.21 85.906 17.0507 85.906 14.732C85.906 12.3507 87.7077 11.16 91.311 11.16H104.565ZM118.511 24.696H123.869C127.472 24.696 129.274 25.871 129.274 28.221C129.274 30.571 127.472 31.746 123.869 31.746H118.511V37.997H124.95C128.553 37.997 130.355 39.172 130.355 41.522C130.355 43.872 128.553 45.047 124.95 45.047H116.067C114.061 45.047 112.698 44.7023 111.978 44.013C111.257 43.3237 110.897 42.0703 110.897 40.253V16.988C110.897 15.0453 111.241 13.6823 111.931 12.899C112.714 12.053 114.124 11.63 116.161 11.63H124.715C128.318 11.63 130.12 12.8207 130.12 15.202C130.12 17.5207 128.318 18.68 124.715 18.68H118.511V24.696ZM136.944 10.502C138.072 10.502 139.372 11.5203 140.845 13.557L145.545 20.137L150.339 13.463C151.749 11.489 153.096 10.502 154.381 10.502C155.227 10.502 155.995 10.8623 156.684 11.583C157.373 12.2723 157.718 13.04 157.718 13.886C157.718 14.8573 157.154 16.142 156.026 17.74L149.869 26.294L158 37.762C159.159 39.4227 159.739 40.7073 159.739 41.616C159.739 42.462 159.394 43.214 158.705 43.872C158.016 44.5613 157.201 44.906 156.261 44.906C154.851 44.906 153.472 43.9503 152.125 42.039L145.357 32.545L138.636 41.992C137.289 43.9347 135.957 44.906 134.641 44.906C133.732 44.906 132.933 44.5613 132.244 43.872C131.555 43.1827 131.21 42.415 131.21 41.569C131.21 40.5977 131.774 39.313 132.902 37.715L141.033 26.388L134.923 17.834C133.795 16.2673 133.231 15.014 133.231 14.074C133.231 11.6927 134.469 10.502 136.944 10.502ZM182.648 24.038V16.001C182.648 12.3977 183.917 10.596 186.455 10.596C188.993 10.596 190.262 12.3977 190.262 16.001V39.595C190.262 43.1983 188.993 45 186.455 45C183.917 45 182.648 43.1983 182.648 39.595V31.088H168.642V39.595C168.642 43.1983 167.373 45 164.835 45C162.297 45 161.028 43.1983 161.028 39.595V16.001C161.028 12.3977 162.297 10.596 164.835 10.596C167.373 10.596 168.642 12.3977 168.642 16.001V24.038H182.648ZM209.225 9.515C214.113 9.515 218.061 11.1287 221.069 14.356C224.109 17.6147 225.628 21.9073 225.628 27.234C225.628 32.498 224.124 36.7593 221.116 40.018C218.108 43.2767 214.145 44.906 209.225 44.906C204.306 44.906 200.342 43.2767 197.334 40.018C194.326 36.7907 192.822 32.5293 192.822 27.234C192.822 21.9387 194.342 17.6617 197.381 14.403C200.389 11.1443 204.337 9.515 209.225 9.515ZM209.225 16.8C206.781 16.8 204.823 17.7243 203.35 19.573C201.846 21.4843 201.094 24.0693 201.094 27.328C201.094 30.4613 201.846 32.968 203.35 34.848C204.854 36.6967 206.813 37.621 209.225 37.621C211.638 37.621 213.596 36.6967 215.1 34.848C216.604 32.968 217.356 30.4613 217.356 27.328C217.356 24.0693 216.604 21.4843 215.1 19.573C213.628 17.7243 211.669 16.8 209.225 16.8ZM100.6 59C103.053 59 105.093 59.44 106.72 60.32C108.293 61.1467 109.08 62.1467 109.08 63.32C109.08 64.0933 108.8 64.7867 108.24 65.4C107.68 66.04 107.027 66.36 106.28 66.36C105.96 66.36 105.573 66.2933 105.12 66.16C104.933 66.1333 104.707 66.08 104.44 66L103.76 65.76C103.173 65.6 102.68 65.48 102.28 65.4C101.693 65.2667 101.133 65.2 100.6 65.2C98.52 65.2 96.84 66.0267 95.56 67.68C94.2533 69.3333 93.6 71.52 93.6 74.24C93.6 76.88 94.2533 78.9867 95.56 80.56C96.8667 82.1333 98.6133 82.92 100.8 82.92C101.413 82.92 102.04 82.84 102.68 82.68C103.133 82.5733 103.667 82.3867 104.28 82.12L104.8 81.92C104.88 81.8933 104.933 81.8667 104.96 81.84C105.227 81.7333 105.453 81.6533 105.64 81.6C106.12 81.44 106.52 81.36 106.84 81.36C107.507 81.36 108.107 81.64 108.64 82.2C109.173 82.7867 109.44 83.4533 109.44 84.2C109.44 85.5067 108.613 86.64 106.96 87.6C105.227 88.6133 103.067 89.12 100.48 89.12C96.32 89.12 92.9733 87.76 90.44 85.04C87.8533 82.2933 86.56 78.64 86.56 74.08C86.56 69.6 87.92 65.9467 90.64 63.12C93.28 60.3733 96.6 59 100.6 59ZM117.184 71.72H121.744C124.811 71.72 126.344 72.72 126.344 74.72C126.344 76.72 124.811 77.72 121.744 77.72H117.184V83.04H122.664C125.731 83.04 127.264 84.04 127.264 86.04C127.264 88.04 125.731 89.04 122.664 89.04H115.104C113.398 89.04 112.238 88.7467 111.624 88.16C111.011 87.5733 110.704 86.5067 110.704 84.96V65.16C110.704 63.5067 110.998 62.3467 111.584 61.68C112.251 60.96 113.451 60.6 115.184 60.6H122.464C125.531 60.6 127.064 61.6133 127.064 63.64C127.064 65.6133 125.531 66.6 122.464 66.6H117.184V71.72ZM136.032 73.64H138.832C141.792 73.64 143.272 72.3867 143.272 69.88C143.272 67.4 141.792 66.16 138.832 66.16H136.032V73.64ZM139.872 60.2C143.099 60.2 145.659 61.08 147.552 62.84C149.392 64.5733 150.312 66.92 150.312 69.88C150.312 72.8667 149.446 75.2133 147.712 76.92C145.952 78.6533 143.512 79.52 140.392 79.52H136.032V84.4C136.032 87.4667 134.952 89 132.792 89C130.632 89 129.552 87.4667 129.552 84.4V64.76C129.552 63.1067 129.846 61.9467 130.432 61.28C131.099 60.56 132.299 60.2 134.032 60.2H139.872ZM162.313 60.72C168.233 60.72 171.193 63.08 171.193 67.8C171.193 70.52 170.02 72.3867 167.673 73.4C171.513 74.36 173.433 76.76 173.433 80.6C173.433 86.3067 170.06 89.16 163.313 89.16H156.913C155.207 89.16 154.047 88.8667 153.433 88.28C152.82 87.6933 152.513 86.6267 152.513 85.08V65.28C152.513 63.6267 152.807 62.4667 153.393 61.8C154.06 61.08 155.26 60.72 156.993 60.72H162.313ZM158.993 83.64H162.193C165.153 83.64 166.633 82.56 166.633 80.4C166.633 78.2667 165.127 77.2 162.113 77.2H158.993V83.64ZM158.993 71.8H161.713C163.847 71.8 164.913 70.88 164.913 69.04C164.913 67.1733 163.82 66.24 161.633 66.24H158.993V71.8ZM178.323 59.72C180.483 59.72 181.563 61.2533 181.563 64.32V77.76L193.523 61.96C194.67 60.4667 195.83 59.72 197.003 59.72C198.976 59.72 199.963 61.2133 199.963 64.2V84.4C199.963 87.4667 198.883 89 196.723 89C194.563 89 193.483 87.4667 193.483 84.4V71.32L181.763 86.8C180.67 88.2667 179.43 89 178.043 89C176.07 89 175.083 87.7067 175.083 85.12V64.32C175.083 61.2533 176.163 59.72 178.323 59.72ZM215.6 59C218.053 59 220.093 59.44 221.72 60.32C223.293 61.1467 224.08 62.1467 224.08 63.32C224.08 64.0933 223.8 64.7867 223.24 65.4C222.68 66.04 222.027 66.36 221.28 66.36C220.96 66.36 220.573 66.2933 220.12 66.16C219.933 66.1333 219.707 66.08 219.44 66L218.76 65.76C218.173 65.6 217.68 65.48 217.28 65.4C216.693 65.2667 216.133 65.2 215.6 65.2C213.52 65.2 211.84 66.0267 210.56 67.68C209.253 69.3333 208.6 71.52 208.6 74.24C208.6 76.88 209.253 78.9867 210.56 80.56C211.867 82.1333 213.613 82.92 215.8 82.92C216.413 82.92 217.04 82.84 217.68 82.68C218.133 82.5733 218.667 82.3867 219.28 82.12L219.8 81.92C219.88 81.8933 219.933 81.8667 219.96 81.84C220.227 81.7333 220.453 81.6533 220.64 81.6C221.12 81.44 221.52 81.36 221.84 81.36C222.507 81.36 223.107 81.64 223.64 82.2C224.173 82.7867 224.44 83.4533 224.44 84.2C224.44 85.5067 223.613 86.64 221.96 87.6C220.227 88.6133 218.067 89.12 215.48 89.12C211.32 89.12 207.973 87.76 205.44 85.04C202.853 82.2933 201.56 78.64 201.56 74.08C201.56 69.6 202.92 65.9467 205.64 63.12C208.28 60.3733 211.6 59 215.6 59Z" fill="#212460"/>
<path d="M73.6108 39.4034C74.378 39.4034 75 38.7814 75 38.0142C75 37.247 74.378 36.625 73.6108 36.625H69.4422V31.0794H73.6108C74.378 31.0794 75 30.4574 75 29.6902C75 28.923 74.378 28.301 73.6108 28.301H69.4422V25.502C69.4422 21.672 66.3263 18.556 62.4963 18.556H59.699V14.3892C59.699 13.622 59.077 13 58.3098 13C57.5426 13 56.9206 13.622 56.9206 14.3892V18.556H51.3748V14.3892C51.3748 13.622 50.7528 13 49.9856 13C49.2185 13 48.5965 13.622 48.5965 14.3892V18.556H43.0508V14.3892C43.0508 13.622 42.4288 13 41.6616 13C40.8945 13 40.2725 13.622 40.2725 14.3892V18.556H34.727V14.3892C34.727 13.622 34.105 13 33.3378 13C32.5707 13 31.9486 13.622 31.9486 14.3892V18.556H26.403V14.3892C26.403 13.622 25.781 13 25.0138 13C24.2467 13 23.6246 13.622 23.6246 14.3892V18.556H18.079V14.3892C18.079 13.622 17.457 13 16.6898 13C15.9227 13 15.3007 13.622 15.3007 14.3892V18.556H12.5001C8.67008 18.556 5.55413 21.672 5.55413 25.502V28.301H1.38918C0.622007 28.301 0 28.923 0 29.6902C0 30.4574 0.622007 31.0794 1.38918 31.0794H5.55413V36.625H1.38918C0.622007 36.625 0 37.247 0 38.0142C0 38.7814 0.622007 39.4034 1.38918 39.4034H5.55413V44.949H1.38918C0.622007 44.949 0 45.571 0 46.3382C0 47.1054 0.622007 47.7274 1.38918 47.7274H5.55413V53.2728H1.38918C0.622007 53.2728 0 53.8948 0 54.662C0 55.4292 0.622007 56.0512 1.38918 56.0512H5.55413V61.5968H1.38918C0.622007 61.5968 0 62.2188 0 62.986C0 63.7532 0.622007 64.3752 1.38918 64.3752H5.55413V69.9208H1.38918C0.622007 69.9208 0 70.5428 0 71.31C0 72.0772 0.622007 72.6992 1.38918 72.6992H5.55413V75.4982C5.55413 79.3282 8.67008 82.4441 12.5001 82.4441H15.3007V86.6108C15.3007 87.378 15.9227 88 16.6898 88C17.457 88 18.079 87.378 18.079 86.6108V82.4441H23.6246V86.6108C23.6246 87.378 24.2467 88 25.0138 88C25.781 88 26.403 87.378 26.403 86.6108V82.4441H31.9486V86.6108C31.9486 87.378 32.5707 88 33.3378 88C34.105 88 34.727 87.378 34.727 86.6108V82.4441H40.2725V86.6108C40.2725 87.378 40.8945 88 41.6616 88C42.4288 88 43.0508 87.378 43.0508 86.6108V82.4441H48.5965V86.6108C48.5965 87.378 49.2185 88 49.9856 88C50.7528 88 51.3748 87.378 51.3748 86.6108V82.4441H56.9206V86.6108C56.9206 87.378 57.5426 88 58.3098 88C59.077 88 59.699 87.378 59.699 86.6108V82.4441H62.4963C66.3263 82.4441 69.4422 79.3282 69.4422 75.4982V72.6992H73.6108C74.378 72.6992 75 72.0772 75 71.31C75 70.5428 74.378 69.9208 73.6108 69.9208H69.4422V64.3752H73.6108C74.378 64.3752 75 63.7532 75 62.986C75 62.2188 74.378 61.5968 73.6108 61.5968H69.4422V56.0512H73.6108C74.378 56.0512 75 55.4292 75 54.662C75 53.8948 74.378 53.2728 73.6108 53.2728H69.4422V47.7274H73.6108C74.378 47.7274 75 47.1054 75 46.3382C75 45.571 74.378 44.949 73.6108 44.949H69.4422V39.4034H73.6108ZM66.6639 75.498C66.6639 77.7959 64.7942 79.6656 62.4963 79.6656H12.5001C10.2022 79.6656 8.3325 77.7959 8.3325 75.498V25.502C8.3325 23.2039 10.2022 21.3344 12.5001 21.3344H62.4963C64.7942 21.3344 66.6639 23.2039 66.6639 25.502V75.498Z" fill="#212460"/>
<path d="M59.6963 25.5237H15.3002C13.7683 25.5237 12.5219 26.77 12.5219 28.3021V72.6981C12.5219 74.2301 13.7683 75.4765 15.3002 75.4765H59.6963C61.2283 75.4765 62.4747 74.2301 62.4747 72.6981V28.3021C62.4747 26.77 61.2283 25.5237 59.6963 25.5237ZM15.3002 72.698V28.3021H59.6963L59.6967 72.6981H15.3002V72.698Z" fill="#48C1BF"/>
</svg>
