<svg width="400" height="400" viewBox="0 0 400 400" fill="none" xmlns="http://www.w3.org/2000/svg">
    <g clip-path="url(#clip0)">
        <path d="M350.502 143.783H330.405L318.866 91.2433C317.217 83.7335 310.44 78.2838 302.752 78.2838H291.751V33.6824C291.751 31.1169 289.67 29.0364 287.105 29.0364H112.89C110.324 29.0364 108.244 31.1169 108.244 33.6824V78.2838H97.2384C89.5503 78.2838 82.7727 83.7344 81.1243 91.2433L69.5856 143.783H49.4889C22.2003 143.783 0 165.988 0 193.281V300.677C0 314.173 10.4572 325.264 23.6908 326.285V338.56C23.6908 342.409 26.811 345.529 30.6597 345.529H68.2903C72.139 345.529 75.2592 342.409 75.2592 338.56V326.37H105.921V354.215C105.921 363.45 113.434 370.965 122.671 370.965H277.325C286.56 370.965 294.074 363.451 294.074 354.215V326.37H324.735V338.56C324.735 342.409 327.855 345.529 331.704 345.529H369.335C373.183 345.529 376.304 342.409 376.304 338.56V326.285C389.54 325.267 400 314.175 400 300.676V193.28C400 165.987 377.795 143.783 350.502 143.783V143.783ZM302.752 92.2208C303.945 92.2208 304.997 93.0664 305.253 94.2325L316.135 143.783H291.751V92.2217H302.752V92.2208ZM282.459 38.3275V143.782H117.536V38.3275H282.459ZM94.738 94.2306C94.9935 93.0654 96.0453 92.2199 97.2384 92.2199H108.244V143.781H83.8562L94.738 94.2306ZM49.4889 157.72H350.502C370.11 157.72 386.062 173.672 386.062 193.28V213.007H272.935V201.622C272.935 189.456 263.037 179.558 250.87 179.558H149.123C136.956 179.558 127.058 189.456 127.058 201.622V213.007H13.9379V193.28C13.9379 173.671 29.8857 157.72 49.4889 157.72V157.72ZM263.643 213.007H136.351V201.622C136.351 194.579 142.081 188.85 149.124 188.85H250.871C257.914 188.85 263.644 194.58 263.644 201.622V213.007H263.643ZM61.3204 331.59H37.6278V326.713H61.3204V331.59ZM74.895 296.164V239.72H325.098V296.164H74.895V296.164ZM277.324 357.025H122.67C121.12 357.025 119.858 355.764 119.858 354.213V305.456H280.135V354.213C280.135 355.764 278.874 357.025 277.324 357.025V357.025ZM362.365 331.59H338.672V326.713H362.365V331.59ZM374.316 312.431H294.073V305.457H329.744C332.309 305.457 334.39 303.377 334.39 300.811V235.075C334.39 232.51 332.309 230.429 329.744 230.429H70.249C67.6835 230.429 65.603 232.51 65.603 235.075V300.811C65.603 303.377 67.6835 305.457 70.249 305.457H105.92V312.431H25.682C19.2055 312.431 13.937 307.158 13.937 300.676V222.3H386.061V300.676C386.061 307.158 380.793 312.431 374.316 312.431V312.431Z"
              fill="black"/>
        <path d="M310.122 249.013H89.8706C87.3051 249.013 85.2246 251.094 85.2246 253.659V282.227C85.2246 284.793 87.3051 286.873 89.8706 286.873H310.122C312.688 286.873 314.768 284.793 314.768 282.227V253.659C314.768 251.094 312.689 249.013 310.122 249.013ZM305.476 277.581H94.5166V258.305H305.476V277.581Z"
              fill="black"/>
        <path d="M151.916 193.959C150.076 193.959 148.283 194.703 146.982 196.004C145.691 197.295 144.947 199.098 144.947 200.928C144.947 202.768 145.691 204.561 146.982 205.853C148.283 207.154 150.076 207.897 151.916 207.897C153.747 207.897 155.54 207.154 156.841 205.853C158.142 204.561 158.885 202.768 158.885 200.928C158.885 199.098 158.142 197.295 156.841 196.004C155.54 194.703 153.746 193.959 151.916 193.959Z"
              fill="black"/>
        <path d="M174.217 196.282C172.99 196.282 171.792 196.784 170.927 197.639C170.063 198.512 169.571 199.702 169.571 200.928C169.571 202.155 170.063 203.353 170.927 204.218C171.792 205.082 172.99 205.574 174.217 205.574C175.434 205.574 176.633 205.082 177.497 204.218C178.361 203.353 178.863 202.155 178.863 200.928C178.863 199.711 178.361 198.512 177.497 197.639C176.632 196.784 175.434 196.282 174.217 196.282Z"
              fill="black"/>
        <path d="M246.684 196.282C245.466 196.282 244.268 196.784 243.404 197.648C242.539 198.512 242.038 199.702 242.038 200.928C242.038 202.155 242.539 203.353 243.404 204.218C244.268 205.082 245.466 205.574 246.684 205.574C247.91 205.574 249.109 205.082 249.973 204.218C250.837 203.353 251.33 202.155 251.33 200.928C251.33 199.711 250.837 198.512 249.973 197.648C249.109 196.784 247.911 196.282 246.684 196.282Z"
              fill="black"/>
        <path d="M264.805 338.443H135.188C132.623 338.443 130.542 340.523 130.542 343.089C130.542 345.654 132.623 347.735 135.188 347.735H264.805C267.37 347.735 269.451 345.654 269.451 343.089C269.451 340.523 267.371 338.443 264.805 338.443Z"
              fill="black"/>
    </g>
    <defs>
        <clipPath id="clip0">
            <rect width="400" height="400" fill="white"/>
        </clipPath>
    </defs>
</svg>
