<svg width="387" height="387" viewBox="0 0 387 387" fill="none" xmlns="http://www.w3.org/2000/svg">
    <g clip-path="url(#clip0)">
        <path d="M380.758 337.732H362.032V144.232C362.032 140.788 359.234 137.99 355.79 137.99H287.129V44.361C287.129 40.917 284.331 38.1191 280.887 38.1191H271.488C243.615 38.1191 217.401 25.8425 199.562 4.43153L198.294 2.91372C195.923 0.0701019 191.077 0.0701019 188.706 2.91372L187.438 4.43153C169.599 25.8425 143.385 38.1191 115.512 38.1191H106.113C102.669 38.1191 99.871 40.917 99.871 44.361V137.99H31.2097C27.7656 137.99 24.9677 140.788 24.9677 144.232V337.732H6.24194C2.7979 337.732 0 340.53 0 343.974C0 368.067 19.6005 387.667 43.6935 387.667H343.306C367.399 387.667 387 368.067 387 343.974C387 340.53 384.202 337.732 380.758 337.732ZM134.464 205.079L190.397 237.044C191.367 237.587 192.433 237.861 193.5 237.861C194.567 237.861 195.633 237.587 196.597 237.038L252.53 205.073C264.688 198.127 274.097 187.651 280.052 175.436H324.581V312.758H62.4194V175.442H106.942C112.897 187.657 122.306 198.127 134.464 205.079ZM112.355 50.603H115.512C145.305 50.603 173.433 38.2197 193.5 16.4552C213.567 38.2197 241.695 50.603 271.488 50.603H274.645V145.463C274.645 165.567 263.798 184.262 246.337 194.238L193.5 224.429L140.663 194.238C123.202 184.262 112.355 165.567 112.355 145.463V50.603ZM37.4516 150.474H100.209C100.52 154.72 101.108 158.907 102.181 162.958H56.1774C52.7334 162.958 49.9355 165.756 49.9355 169.2V319.006C49.9355 322.453 52.7334 325.248 56.1774 325.248H330.823C334.267 325.248 337.065 322.453 337.065 319.006V169.2C337.065 165.756 334.267 162.958 330.823 162.958H284.819C285.892 158.907 286.48 154.72 286.791 150.474H349.548V337.732H37.4516V150.474ZM343.306 375.184H43.6935C28.619 375.184 16.0102 364.443 13.1148 350.216H373.885C370.99 364.443 358.381 375.184 343.306 375.184Z"
              fill="black"/>
        <path d="M143.565 181.684H243.436C246.88 181.684 249.677 178.889 249.677 175.442V113.022C249.677 109.578 246.88 106.78 243.436 106.78H237.194V88.0545C237.194 63.9615 217.593 44.361 193.5 44.361C169.407 44.361 149.807 63.9615 149.807 88.0545V106.78H143.565C140.121 106.78 137.323 109.578 137.323 113.022V175.442C137.323 178.889 140.121 181.684 143.565 181.684ZM162.29 88.0545C162.29 70.8466 176.292 56.8449 193.5 56.8449C210.708 56.8449 224.71 70.8466 224.71 88.0545V106.78H212.226V88.0545C212.226 77.7316 203.823 69.3288 193.5 69.3288C183.177 69.3288 174.774 77.7316 174.774 88.0545V106.78H162.29V88.0545ZM199.742 106.78H187.258V88.0545C187.258 84.6166 190.062 81.8126 193.5 81.8126C196.938 81.8126 199.742 84.6166 199.742 88.0545V106.78ZM237.194 119.264V144.232H224.71V156.716H237.194V169.2H149.807V144.232H162.29V131.748H149.807V119.264H237.194Z"
              fill="black"/>
        <path d="M212.226 150.474C212.226 140.151 203.823 131.748 193.5 131.748C183.177 131.748 174.774 140.151 174.774 150.474C174.774 160.8 183.177 169.2 193.5 169.2C203.823 169.2 212.226 160.8 212.226 150.474ZM193.5 156.716C190.062 156.716 187.258 153.915 187.258 150.474C187.258 147.036 190.062 144.232 193.5 144.232C196.938 144.232 199.742 147.036 199.742 150.474C199.742 153.915 196.938 156.716 193.5 156.716Z"
              fill="black"/>
    </g>
    <defs>
        <clipPath id="clip0">
            <rect width="387" height="387" fill="white"/>
        </clipPath>
    </defs>
</svg>
